…
## 4. Results
----------

### Structure of the tidy dataset

Presented below in *Figure 2* is the structure of the tidy dataset. The
first two columns of the `tidy_dataset.txt` are the subject identifiers
and the activity labels. Altogether, this `tidy_dataset.txt` comprises
66 averaged measurements for each activity (N=6) and each subject
(N=30).

**Figure 2. Structure of the tidy dataset**

    > tidy_data
    # A tibble: 180 x 68
    # Groups:   subject [30]
       subject activity_labels avgTimeBodyAccM… avgTimeBodyAccM… avgTimeBodyAccM… avgTimeBodyAccS… avgTimeBodyAccS…
         <int> <fct>                      <dbl>            <dbl>            <dbl>            <dbl>            <dbl>
     1       1 laying                     0.222         -0.0405           -0.113           -0.928          -0.837  
     2       1 sitting                    0.261         -0.00131          -0.105           -0.977          -0.923  
     3       1 standing                   0.279         -0.0161           -0.111           -0.996          -0.973  
     4       1 walking                    0.277         -0.0174           -0.111           -0.284           0.114  
     5       1 walking_downst…            0.289         -0.00992          -0.108            0.0300         -0.0319 
     6       1 walking_upstai…            0.255         -0.0240           -0.0973          -0.355          -0.00232
     7       2 laying                     0.281         -0.0182           -0.107           -0.974          -0.980  
     8       2 sitting                    0.277         -0.0157           -0.109           -0.987          -0.951  
     9       2 standing                   0.278         -0.0184           -0.106           -0.987          -0.957  
    10       2 walking                    0.276         -0.0186           -0.106           -0.424          -0.0781 
    # … with 170 more rows, and 61 more variables: avgTimeBodyAccStdZ <dbl>, avgTimeGravityAccMeanX <dbl>,
    #   avgTimeGravityAccMeanY <dbl>, avgTimeGravityAccMeanZ <dbl>, avgTimeGravityAccStdX <dbl>,
    #   avgTimeGravityAccStdY <dbl>, avgTimeGravityAccStdZ <dbl>, avgTimeBodyAccJerkMeanX <dbl>,
    #   avgTimeBodyAccJerkMeanY <dbl>, avgTimeBodyAccJerkMeanZ <dbl>, avgTimeBodyAccJerkStdX <dbl>,
    #   avgTimeBodyAccJerkStdY <dbl>, avgTimeBodyAccJerkStdZ <dbl>, avgTimeBodyGyroMeanX <dbl>,
    #   avgTimeBodyGyroMeanY <dbl>, avgTimeBodyGyroMeanZ <dbl>, avgTimeBodyGyroStdX <dbl>,
    #   avgTimeBodyGyroStdY <dbl>, avgTimeBodyGyroStdZ <dbl>, avgTimeBodyGyroJerkMeanX <dbl>,
    #   avgTimeBodyGyroJerkMeanY <dbl>, avgTimeBodyGyroJerkMeanZ <dbl>, avgTimeBodyGyroJerkStdX <dbl>,
    #   avgTimeBodyGyroJerkStdY <dbl>, avgTimeBodyGyroJerkStdZ <dbl>, avgTimeBodyAccMagMean <dbl>,
…
